............
----------------------------------------------------------------------
Ran 12 tests in 0.002s

OK
Name               Stmts   Miss Branch BrPart  Cover   Missing
--------------------------------------------------------------
Diplomacy.py          68      3     42      2    95%   57->48, 80-82
TestDiplomacy.py      54      0      2      1    98%   110->exit
--------------------------------------------------------------
TOTAL                122      3     44      3    96%