.......
----------------------------------------------------------------------
Ran 7 tests in 0.001s

OK
Name               Stmts   Miss Branch BrPart  Cover   Missing
--------------------------------------------------------------
Diplomacy.py         107      0     56      0   100%
TestDiplomacy.py      39      0      0      0   100%
--------------------------------------------------------------
TOTAL                146      0     56      0   100%
