..................
----------------------------------------------------------------------
Ran 18 tests in 0.002s

OK
Name               Stmts   Miss Branch BrPart  Cover   Missing
--------------------------------------------------------------
Diplomacy.py          77      4     60      4    94%   48->38, 62-63, 68-69, 89->exit
TestDiplomacy.py      82      0      2      1    99%   186->exit
--------------------------------------------------------------
TOTAL                159      4     62      5    96%
