.................
----------------------------------------------------------------------
Ran 17 tests in 0.007s

OK
Name               Stmts   Miss Branch BrPart  Cover   Missing
--------------------------------------------------------------
Diplomacy.py          63      0     34      0   100%
TestDiplomacy.py      71      0      0      0   100%
--------------------------------------------------------------
TOTAL                134      0     34      0   100%
