............................
----------------------------------------------------------------------
Ran 28 tests in 0.003s

OK
Name               Stmts   Miss Branch BrPart  Cover   Missing
--------------------------------------------------------------
Diplomacy.py          90      0     46      0   100%
TestDiplomacy.py     133      0      0      0   100%
--------------------------------------------------------------
TOTAL                223      0     46      0   100%
