..........
----------------------------------------------------------------------
Ran 10 tests in 0.001s

OK
Name               Stmts   Miss Branch BrPart  Cover   Missing
--------------------------------------------------------------
Diplomacy.py          48      0     33      0   100%
TestDiplomacy.py      56      0      0      0   100%
--------------------------------------------------------------
TOTAL                104      0     33      0   100%


