..................
----------------------------------------------------------------------
Ran 18 tests in 0.001s
OK
Name               Stmts   Miss Branch BrPart  Cover   Missing
--------------------------------------------------------------
Diplomacy.py          65      0     40      1    99%   25->28
TestDiplomacy.py      93      3      2      1    96%   80-82, 147->exit
--------------------------------------------------------------
TOTAL                158      3     42      2    98%
