....
----------------------------------------------------------------------
Ran 4 tests in 0.003s

OK
Name               Stmts   Miss Branch BrPart  Cover   Missing
--------------------------------------------------------------
Diplomacy.py          54      0     40      0   100%
TestDiplomacy.py      26      0      0      0   100%
army.py               14      0      2      0   100%
--------------------------------------------------------------
TOTAL                 94      0     42      0   100%
