...............
----------------------------------------------------------------------
Ran 15 tests in 0.002s

OK
Name               Stmts   Miss Branch BrPart  Cover   Missing
--------------------------------------------------------------
Diplomacy.py          52      0     34      0   100%
TestDiplomacy.py      82      0      0      0   100%
--------------------------------------------------------------
TOTAL                134      0     34      0   100%
