......
----------------------------------------------------------------------
Ran 6 tests in 0.001s

OK
Name               Stmts   Miss Branch BrPart  Cover   Missing
--------------------------------------------------------------
Diplomacy.py          57      0     40      0   100%
TestDiplomacy.py      35      0      0      0   100%
--------------------------------------------------------------
TOTAL                 92      0     40      0   100%
